{
    "alt": "Orb of Alteration",
    "fuse": "Orb of Fusing",
    "alch": "Orb of Alchemy",
    "chaos": "Chaos Orb",
    "gcp": "Gemcutter's Prism",
    "exa": "Exalted Orb",
    "chrom": "Chromatic Orb",
    "jew": "Jeweller's Orb",
    "engineers-orb": "Engineer's Orb",
    "chance": "Orb of Chance",
    "chisel": "Cartographer's Chisel",
    "scour": "Orb of Scouring",
    "blessed": "Blessed Orb",
    "regret": "Orb of Regret",
    "regal": "Regal Orb",
    "divine": "Divine Orb",
    "vaal": "Vaal Orb",
    "orb-of-annulment": "Orb of Annulment",
    "orb-of-binding": "Orb of Binding",
    "ancient-orb": "Ancient Orb",
    "orb-of-horizons": "Orb of Horizons",
    "harbingers-orb": "Harbinger's Orb",
    "wis": "Scroll of Wisdom",
    "port": "Portal Scroll",
    "scr": "Armourer's Scrap",
    "whe": "Blacksmith's Whetstone",
    "ba": "Glassblower's Bauble",
    "tra": "Orb of Transmutation",
    "aug": "Orb of Augmentation",
    "mir": "Mirror of Kalandra",
    "ete": "Eternal Orb",
    "p": "Perandus Coin",
    "silver": "Silver Coin",
    "annulment-shard": "Annulment Shard",
    "mirror-shard": "Mirror Shard",
    "exalted-shard": "Exalted Shard",
    "binding-shard": "Binding Shard",
    "horizon-shard": "Horizon Shard",
    "harbingers-shard": "Harbinger's Shard",
    "engineers-shard": "Engineer's Shard",
    "ancient-shard": "Ancient Shard",
    "chaos-shard": "Chaos Shard",
    "regal-shard": "Regal Shard",
    "apprentice-sextant": "Apprentice Cartographer's Sextant",
    "journeyman-sextant": "Journeyman Cartographer's Sextant",
    "master-sextant": "Master Cartographer's Sextant",
    "blessing-xoph": "Blessing of Xoph",
    "blessing-tul": "Blessing of Tul",
    "blessing-esh": "Blessing of Esh",
    "blessing-uul-netol": "Blessing of Uul-Netol",
    "blessing-chayula": "Blessing of Chayula",
    "splinter-xoph": "Splinter of Xoph",
    "splinter-tul": "Splinter of Tul",
    "splinter-esh": "Splinter of Esh",
    "splinter-uul": "Splinter of Uul-Netol",
    "splinter-chayula": "Splinter of Chayula",
    "dusk": "Sacrifice at Dusk",
    "mid": "Sacrifice at Midnight",
    "dawn": "Sacrifice at Dawn",
    "noon": "Sacrifice at Noon",
    "grie": "Mortal Grief",
    "rage": "Mortal Rage",
    "hope": "Mortal Hope",
    "ign": "Mortal Ignorance",
    "eber": "Eber's Key",
    "yriel": "Yriel's Key",
    "inya": "Inya's Key",
    "volkuur": "Volkuur's Key",
    "hydra": "Fragment of the Hydra",
    "phoenix": "Fragment of the Phoenix",
    "minot": "Fragment of the Minotaur",
    "chimer": "Fragment of the Chimera",
    "sacrifice-set": "Sacrifice Set",
    "mortal-set": "Mortal Set",
    "pale-court-set": "Pale Court Set",
    "shaper-set": "Shaper Set",
    "xophs-breachstone": "Xoph's Breachstone",
    "tuls-breachstone": "Tul's Breachstone",
    "eshs-breachstone": "Esh's Breachstone",
    "uul-breachstone": "Uul-Netol's Breachstone",
    "chayulas-breachstone": "Chayula's Breachstone",
    "xophs-charged-breachstone": "Xoph's Charged Breachstone",
    "tuls-charged-breachstone": "Tul's Charged Breachstone",
    "eshs-charged-breachstone": "Esh's Charged Breachstone",
    "uul-charged-breachstone": "Uul-Netol's Charged Breachstone",
    "chayulas-charged-breachstone": "Chayula's Charged Breachstone",
    "xophs-enriched-breachstone": "Xoph's Enriched Breachstone",
    "tuls-enriched-breachstone": "Tul's Enriched Breachstone",
    "eshs-enriched-breachstone": "Esh's Enriched Breachstone",
    "uul-enriched-breachstone": "Uul-Netol's Enriched Breachstone",
    "chayulas-enriched-breachstone": "Chayula's Enriched Breachstone",
    "xophs-pure-breachstone": "Xoph's Pure Breachstone",
    "tuls-pure-breachstone": "Tul's Pure Breachstone",
    "eshs-pure-breachstone": "Esh's Pure Breachstone",
    "uul-pure-breachstone": "Uul-Netol's Pure Breachstone",
    "chayulas-pure-breachstone": "Chayula's Pure Breachstone",
    "offer": "Offering to the Goddess",
    "divine-vessel": "Divine Vessel",
    "ancient-reliquary-key": "Ancient Reliquary Key"
}